INDEX VERSION 1.131+/home/lucas/Documentos/Desenvolvimento/FSW/IDEs/eclipse/workspace/spring-boot-training-master/.metadata/.plugins/org.eclipse.jdt.core
1148538991.index
402346919.index
3944425393.index
2144711884.index
3449918228.index
2907841873.index
464473231.index
2018425922.index
3942191000.index
738005735.index
3752900894.index
2163861386.index
3682908600.index
1725046137.index
433020331.index
3223069089.index
3670715059.index
1356584104.index
605057594.index
1202984941.index
529758425.index
3467285926.index
1789011572.index
3895991595.index
2005886748.index
4014710448.index
2717413799.index
510239249.index
3563415691.index
1437295299.index
3748851017.index
3220438968.index
844312305.index
308296355.index
191958074.index
468340538.index
3766819750.index
2751230438.index
766989699.index
2265054721.index
3330480661.index
602704883.index
1498502549.index
1362373318.index
2074851397.index
1107670189.index
2087608551.index
3226062506.index
4228422057.index
1810885398.index
3352043843.index
3244191045.index
2792675961.index
3989154431.index
3148304599.index
809363609.index
415164952.index
1987558497.index
317856527.index
1237234281.index
1851988471.index
1578271205.index
365201388.index
194120048.index
355310765.index
748899916.index
3601100314.index
3271196713.index
2575294252.index
4293456844.index
2257226466.index
2360037856.index
2326285049.index
1277800831.index
841835964.index
2223695733.index
81239846.index
1599181406.index
3207940247.index
3499229615.index
2602517247.index
4291459393.index
2018459519.index
1739499602.index
2513868308.index
587398172.index
3845550103.index
1427245081.index
87204159.index
2107032518.index
3220679450.index
1806150210.index
2508736743.index
630613805.index
1813007820.index
1114821130.index
2079262799.index
4033681079.index
1196870373.index
1990905720.index
3748316945.index
3604366545.index
1312544692.index
1251150728.index
848828815.index
3153399841.index
1756173101.index
914675271.index
1306624126.index
490910431.index
3228044693.index
265033346.index
1135572297.index
3680824625.index
728846170.index
3518684225.index
1369783455.index
3727188724.index
1514345442.index
3595609609.index
4201808304.index
1747324377.index
1699514864.index
3198464552.index
2956207199.index
832897667.index
1493277727.index
567829887.index
2498038501.index
3192912070.index
1162164801.index
1950312886.index
346328651.index
